Signer List,Completed On
William Fox [den.of.foxes@gmail.com],2/15/2016 5:47:02 PM PT
Dave  Nelson [drbow2767@yahoo.com],2/15/2016 4:29:01 PM PT
Joseph  Aiello [jiaiello@gmail.com],2/15/2016 3:35:51 PM PT
DAVID  RETELLE [jeannieretelle@yahoo.com],2/15/2016 3:24:31 PM PT
Ernest Onyia [onyiaernest1@netzero.net],2/15/2016 2:27:57 PM PT
Doreen Dalesandro [agileCairn@comcast.net],2/15/2016 2:40:00 PM PT
Robert  Carter [carters434@comcast.net],2/15/2016 1:21:39 PM PT
Henry Sistrunk [floyd7888@yahoo.com],2/15/2016 12:51:28 PM PT
George Temple [oloringt@yahoo.com],2/15/2016 1:32:38 PM PT
Lawrence Clamons [lclamons@aol.com],2/15/2016 12:33:34 PM PT
Shivaram Narayanan [shivaram@vt.edu],2/15/2016 4:18:25 PM PT
Benjamin Rieger [bsrieger@gmail.com],2/15/2016 1:45:48 PM PT
Edwin wensman [edwens@usfamily.net],2/15/2016 12:31:05 PM PT
Mike  Kellner [kellnermike8@gmail.com],2/15/2016 1:16:19 PM PT
Christopher Pichner [pichner@gmail.com],2/15/2016 12:43:35 PM PT
Robert Nelson Lay [robert.n.lay@gmail.com],2/15/2016 11:54:35 AM PT
Lewis Olson [lewj@q.com],2/15/2016 11:45:08 AM PT
Gary Schoener [grschoener@aol.com],2/15/2016 3:35:32 PM PT
Brenden Schaaf [bschaaf@bschaaf.com],2/15/2016 9:29:50 PM PT
Barbara Johnson [brainbow@hickorytech.net],2/15/2016 11:06:10 AM PT
Vicky Huerth [vicky.huerth@comcast.net],2/15/2016 9:01:27 PM PT
Jason Jones [jljones@mmm.com],2/15/2016 9:51:38 AM PT
Sarah Von Bargen [sarah@yesandyes.org],2/15/2016 10:26:36 AM PT
Matthew Driscoll [driscoma@gmail.com],2/15/2016 9:53:43 AM PT
Robert  McDowell [rjm@mcdowellagency.com],2/15/2016 9:35:14 AM PT
Nathan Ellis [nathanellis975@gmail.com],2/15/2016 1:34:52 PM PT
Troy Schmidt [schmittyfinsfan@yahoo.com],2/15/2016 6:34:13 PM PT
Glenn smith [glesmith21@comcast.net],2/15/2016 8:54:26 AM PT
Adam Kremer [akremer01@hotmail.com],2/15/2016 9:00:38 AM PT
Rachel Limon [rachellimon5@gmail.com],2/15/2016 8:44:23 AM PT
David  Lux [dplux@hotmail.com],2/15/2016 8:40:03 AM PT
Thomas  Seubert [stsaseubert@msn.com],2/15/2016 7:22:26 AM PT
Matthew  Onken [monken3244@msn.com],2/15/2016 7:17:02 AM PT
Joseph Reilly [jrm215@outlook.com],2/13/2016 3:17:13 PM PT
Brian Buck [brian.buck@agstar.com],2/13/2016 3:10:27 PM PT
Richard  Ehern [rrssmchern@aol.com],2/13/2016 3:09:08 PM PT
Sonita  Djos [soy_sonita@yahoo.com],2/13/2016 1:12:39 PM PT
Daniel Berg [berg.daniel@comcast.net],2/13/2016 12:56:35 PM PT
Ridge Pidde [ridgebenedum@yahoo.com],2/13/2016 12:17:20 PM PT
Andrew  Jensen [andy.jens0599@gmail.com],2/15/2016 2:22:18 PM PT
Catherine Day [cr4day@gmail.com],2/13/2016 11:14:10 AM PT
Jeff Christensen [j.christensen11@yahoo.com],2/13/2016 10:47:13 AM PT
Jean Madden [madberts@comcast.net],2/13/2016 10:46:13 AM PT
Catherine Statz [statz001@umn.edu],2/13/2016 10:29:24 AM PT
Kathy Bell [belkat82@gmail.com],2/13/2016 9:40:34 AM PT
Robert Panlener [panlener@mac.com],2/13/2016 9:36:05 AM PT
Matt  Cooper [mcooper3636@gmail.com],2/13/2016 9:30:56 AM PT
Shawn Lewis [lewis12356@hotmail.com],2/13/2016 2:19:32 PM PT
Esther Lenartz [lenartz4@yahoo.com],2/13/2016 7:48:30 AM PT
Ashley Roberts [ashleyvroberts@gmail.com],2/13/2016 7:02:29 AM PT
Cosmin  Tarau [tarau002@umn.edu],2/14/2016 6:58:26 PM PT
Jennifer Amber Swick [jaswick8@gmail.com],2/13/2016 8:38:25 AM PT
Tim  Moore [tim.moore927@gmail.com],2/12/2016 4:14:03 PM PT
Dennis Kaup [smkaup@mac.com],2/15/2016 6:16:03 AM PT
Joshua Winger [lisa1winger@gmail.com],2/12/2016 3:49:10 PM PT
Matthew Rappa [mbrappa@aol.com],2/12/2016 3:40:23 PM PT
Sean ORourke [seanorourke@yahoo.com],2/13/2016 8:52:44 AM PT
Shannon  Harman [shannon_harman01@yahoo.com],2/12/2016 2:50:28 PM PT
Violet  Huisingh [bridgewoman@hotmail.com],2/12/2016 3:08:48 PM PT
Paul Reyburn [preyburn1@gmail.com],2/13/2016 6:15:46 AM PT
Bret Walling [walling12@yahoo.com],2/12/2016 1:40:15 PM PT
Nathan  Hierlmaier [nate.hierlmaier@gmail.com],2/12/2016 1:40:59 PM PT
Ronald Riebe [fisherriebe@comcast.net],2/12/2016 1:36:25 PM PT
Linda Holmberg [lyncmail-ad@yahoo.com],2/12/2016 1:38:05 PM PT
Lisa Tesch [lisa.tesch@toro.com],2/12/2016 1:03:49 PM PT
Laura Trejo [oljca@yahoo.com],2/12/2016 12:35:17 PM PT
Craig Wittich [ccbs3@msn.com],2/12/2016 11:41:46 AM PT
Jonn Rice [jrice1@enventis.net],2/13/2016 12:21:47 PM PT
Richard  Baker [cboe_1600@yahoo.com],2/12/2016 11:15:46 AM PT
Joan Gens [joange55a@gmail.com],2/12/2016 9:46:21 AM PT
Micah Boomgaarden [micahboom@gmail.com],2/12/2016 9:19:07 AM PT
Micheal Butchko [butchkomr@comcast.net],2/12/2016 7:53:41 AM PT
Cody Gramm [cody.gramm@gmail.com],2/12/2016 2:13:37 PM PT
Brian  Grant [brian.grant@genmills.com],2/12/2016 7:24:13 AM PT
Bob  Bartlett [lostbob52003@yahoo.com],2/12/2016 7:24:57 AM PT
Oscar T Mathison [otmathison@gmail.com],2/12/2016 7:21:32 AM PT
Lelani  Drake [oct2673@comcast.net],2/12/2016 6:40:12 AM PT
John  Sabino [crees.anthony@gmail.com],2/12/2016 6:10:37 AM PT
Paty  Ann [g.demaray@spesda.org],2/11/2016 4:57:38 PM PT
Claire  Lee [craftyclaire55@gmail.com],2/11/2016 4:25:56 PM PT
Paul Talarico [pbnj0722@q.com],2/13/2016 4:07:38 PM PT
Crystal Macleod [fletamw@yahoo.com],2/11/2016 4:14:48 PM PT
Bobbie Carey [bobbiegc@comcast.net],2/15/2016 3:49:15 PM PT
Tim Jones [tim.paul.jones17@gmail.com],2/11/2016 3:45:10 PM PT
Jim Tacklind [jtacklind1@msn.com],2/15/2016 8:35:45 AM PT
Roger C and Sandra S Clarke [rclarkelaw@gmail.com],2/12/2016 2:04:42 PM PT
Brian Risch [risch.brian@gmail.com],2/13/2016 8:07:45 AM PT
Jason Heinrichs [jasonheinrichs@gmail.com],2/11/2016 2:23:18 PM PT
Brian Foro [brian.foro@merrillcorp.com],2/12/2016 12:48:09 PM PT
Michael Prouty [mwprou@gmail.com],2/11/2016 2:16:00 PM PT
John  Pecchia [jpecchia81@gmail.com],2/11/2016 2:11:06 PM PT
Timothy Karel [tkarel@tedglasrud.com],2/12/2016 9:52:21 AM PT
Lori Beron [lberon@comcast.net],2/14/2016 2:13:11 PM PT
Chandler Poling [chanpol@aol.com],2/13/2016 8:44:59 AM PT
Paul Tembrock [ptembrock@gmail.com],2/11/2016 1:15:14 PM PT
Mary Rivet [maryjorivet@msn.com],2/12/2016 8:46:30 AM PT
Limenih Wubshet [emirulimenih@gmail.com],2/12/2016 11:31:53 AM PT
William Allard [allardss409@yahoo.com],2/11/2016 2:50:18 PM PT
Paul neshek [neshekp@gmail.com],2/12/2016 4:00:45 PM PT
Gordon  Beulke [gordy@beulkeagency.com],2/11/2016 12:18:11 PM PT
Arthur Henderson [Maryann6141@icloud.com],2/11/2016 12:17:36 PM PT
Joan Forman [foreman2@q.com],2/11/2016 12:12:25 PM PT
Gordon Alexander [gjalex@umn.edu],2/12/2016 1:57:24 PM PT
J Marie Digatono [oratrix6@gmail.com],2/11/2016 11:39:36 AM PT
Greg Weiss [Gweiss1974@yahoo.com],2/11/2016 11:27:19 AM PT
Dorwin Hang [heidihang@gmail.com],2/11/2016 6:17:49 PM PT
Donald Empson [empson@usfamily.net],2/11/2016 11:21:21 AM PT
Michelle Ann Egan [visaclient@gmail.com],2/11/2016 10:32:18 AM PT
Rose Defanto [rmdmn@yahoo.com],2/11/2016 10:27:35 AM PT
Brendan Group [BrendanGroup@msn.com],2/11/2016 10:03:11 AM PT
Paul Gardner [cantak@gmail.com],2/11/2016 10:05:05 AM PT
LaVerne Herzmann [ceherzmann@aol.com],2/11/2016 9:57:32 AM PT
Laura Koszewski [laura.muskatevc@gmail.com],2/11/2016 9:38:54 AM PT
Michael Hart [mhart@mono-1.com],2/11/2016 10:47:37 AM PT
Miriam Arendt [msarendt@q.com],2/11/2016 9:24:53 AM PT
Mark Sabbann [arcola@visi.com],2/11/2016 12:35:05 PM PT
Karin Mcgillivray [kmm0964@gmail.com],2/11/2016 9:26:46 AM PT
Dawn Wadsworth [dawn.wadsworth@fsis.usda.gov],2/11/2016 9:08:02 AM PT
Harvey Ettinger [hgetting@aol.com],2/11/2016 9:04:53 AM PT
Carolyn Folke [cbwf40@gmail.com],2/11/2016 9:02:11 AM PT
Amy Wescott [amywescott@ymail.com],2/11/2016 8:39:28 AM PT
Vanessa Austin [ness1@hotmail.com],2/12/2016 5:53:46 PM PT
Jim carpenter [wearethecarpenters@msn.com],2/12/2016 7:10:47 PM PT
Harvey Pederson [hpederson@hcinet.net],2/11/2016 8:29:53 AM PT
Kimberly Gray [bkmagray@msn.com],2/12/2016 12:10:17 PM PT
David  Wolking [dcwolking@icloud.com],2/11/2016 7:35:01 AM PT
Daniel Smith [smithfam91@gmail.com],2/11/2016 7:40:30 AM PT
Allen  Gerdts [agerdts@hotmail.com],2/11/2016 7:15:15 AM PT
Burce Mead [brucemead36@gmail.com],2/11/2016 7:33:01 AM PT
Nancy Ness [quercuscyclus@gmail.com],2/11/2016 6:50:04 AM PT
Ann Butler [indywoman68@yahoo.com],2/11/2016 9:12:30 PM PT
Elizabeth Fenske [liz.fenske@gmail.com],2/11/2016 9:37:17 AM PT
Julie  Costa [jcosta@globalvolunteers.org],2/11/2016 6:27:10 AM PT
Inta Sellars [jeronimus@q.com],2/10/2016 6:34:58 PM PT
Anand  David [nlaicadavid@gmail.com],2/10/2016 4:52:11 PM PT
Dawn  Flinn [dawn4nature@yahoo.com],2/10/2016 4:55:43 PM PT
Justin Ellison [jandlellison@gmail.com],2/10/2016 4:25:59 PM PT
Patricia Stillwell [pattystillwell@yahoo.com],2/10/2016 4:38:45 PM PT
James Anderson [janderson22217@gmail.com],2/10/2016 4:12:20 PM PT
Vicky schuch [vlschuch@live.com],2/10/2016 4:59:40 PM PT
Steven Stromme [steve.stromme@gmail.com],2/10/2016 4:18:52 PM PT
Mark Nyquist [mknyquist@gmail.com],2/10/2016 4:02:23 PM PT
Jimmie cowan [jimmiec@usfamily.net],2/11/2016 8:55:43 AM PT
Jody Pilaczynski [jodylp@q.com],2/12/2016 2:13:23 PM PT
Luke Schallinger [leschallinger@q.com],2/10/2016 3:25:13 PM PT
Rebecca Henry [rohenry@charter.net],2/11/2016 3:18:25 PM PT
Mark Roosa [majikroo@comcast.net],2/10/2016 2:38:47 PM PT
Becky Lyon [becky.lyon50@comcast.net],2/10/2016 2:26:02 PM PT
Felix  Barrera [barrerasmn@hotmail.com],2/11/2016 10:43:33 AM PT
Tarik  Lemtouni [tarik.lemtouni@gmail.com],2/11/2016 8:16:36 AM PT
David  Dickhausen [dresden1948@hotmail.com],2/10/2016 7:35:16 PM PT
Jill Zahniser [jdzahniser@gmail.com],2/10/2016 1:19:44 PM PT
Marlys Lehmann [mar-leh@usfamily.net],2/11/2016 1:30:52 PM PT
Joan Ervin [joan.ervin53@me.com],2/10/2016 12:54:16 PM PT
Susan Schneiderhan [sonnysabc@yahoo.com],2/10/2016 12:53:10 PM PT
David Arnold [davidarnold337@hotmail.com],2/10/2016 12:34:50 PM PT
Harry Wernecke [hwernecke@visi.com],2/10/2016 12:40:34 PM PT
Phillip Smith [phiglo2@aol.com],2/10/2016 12:41:17 PM PT
Shawn  White [spwhite06@yahoo.com],2/10/2016 12:17:52 PM PT
Sean  White [spwhite06@yahoo.com],2/10/2016 12:19:03 PM PT
Tom Rulland [trulland@yahoo.com],2/11/2016 8:17:13 AM PT
Lynn  Franz [lcpaul58@msn.com],2/10/2016 12:12:56 PM PT
John  Gehan [johngehan@comcast.net],2/10/2016 11:59:02 AM PT
Rebecca Schneider [rjs55104@gmail.com],2/10/2016 11:44:51 AM PT
Marianne Turnbull [marianneturnbull@gmail.com],2/10/2016 11:40:51 AM PT
Susan Prince [susan.prince15@gmail.com],2/10/2016 10:34:29 AM PT
Curtis Laduke [ladukesrenewsit@hotmail.com],2/10/2016 9:47:03 AM PT
Patrick Scherven [patrickscherven@hotmail.com],2/10/2016 9:37:04 AM PT
Marlon Griffing [griffing4564@comcast.net],2/10/2016 9:22:24 AM PT
Myron Nelson [wardnelson6390@yahoo.com],2/10/2016 8:36:04 AM PT
Charles Solender [char777@usfamily.net],2/10/2016 8:31:04 AM PT
Susaan Griggs [mngriggs@gmail.com],2/10/2016 8:02:38 AM PT
Teresa Egge [tegge1956@gmail.com],2/10/2016 7:34:09 AM PT
Greg  Maus [g.maus@gmx.com],2/10/2016 7:30:42 AM PT
Bobbi Jo Krieg [CeCe_14@yahoo.com],2/10/2016 8:22:11 AM PT
Brian Bethke [bethke.brian@gmail.com],2/10/2016 7:10:49 AM PT
Joseph  Rasimas [sophrosyne_@msn.com],2/13/2016 10:48:04 AM PT
Steven Conery [caseyconery@gmail.com],2/9/2016 5:03:25 PM PT
Richard Class [sdkphantomcreek@gmail.com],2/9/2016 3:19:39 PM PT
Todd  Peterson [tap7771@hotmail.com],2/9/2016 3:45:53 PM PT
Elizabeth  bragg [elbragg51@gmail.com],2/9/2016 2:49:50 PM PT
Cliff Colby [ccolby@charter.net],2/9/2016 4:48:58 PM PT
Heidi Feltnan [adelheidw024@gmail.com],2/9/2016 2:22:17 PM PT
Karen Wiberg [karenwiberg14@gmail.com],2/9/2016 2:18:32 PM PT
Annetten Schlasinger [annette.sch@earthlink.net],2/9/2016 1:23:35 PM PT
Sara Rousslang [cerbear@comcast.net],2/9/2016 3:04:58 PM PT
Elizabeth Everitt [e.everitt@comcast.net],2/9/2016 12:41:36 PM PT
Gary  Andresen [gandresen68@gmail.com],2/9/2016 11:41:02 AM PT
Mark Brandt [jmbrandt@usiwireless.com],2/9/2016 11:26:15 AM PT
Paul  Sterlacci [sterlaccip@aol.com],2/9/2016 1:56:56 PM PT
Lawrence Keller [horselovertrader@gmail.com],2/9/2016 11:21:29 AM PT
Chad Kono [Konox001@umn.edu],2/9/2016 2:44:09 PM PT
X x [ana.sunshare@gmail.com],2/11/2016 12:17:58 PM PT
Joel Whitaker [joel.sunshare@gmail.com],2/9/2016 8:42:12 AM PT
Jammal Franklin [jammal.sunshare@gmail.com],2/9/2016 8:29:05 AM PT
Janeshka Dorbs [janeshka.sunshare@gmail.com],2/9/2016 8:33:17 AM PT
Leonela Drake [leoneladrake.sunshare@gmail.com],2/9/2016 8:24:14 AM PT
Sofia Payne [sofie.sunshare@gmail.com],2/9/2016 8:11:11 AM PT
Ellen Pfarr [epfarr@midco.net],2/9/2016 7:44:10 AM PT
Jane Sigford [jlsigford@comcast.net],2/9/2016 7:29:48 AM PT
