<?xml version="1.0" standalone="no"?>
<!DOCTYPE svg PUBLIC "-//W3C//DTD SVG 1.1//EN" "http://www.w3.org/Graphics/SVG/1.1/DTD/svg11.dtd">
<svg xmlns="http://www.w3.org/2000/svg"><defs><font id="flaticon" horiz-adv-x="512"><font-face units-per-em="512" ascent="448" descent="-64" x-height="240" cap-height="480"/><missing-glyph horiz-adv-x="512"/><glyph unicode="&#xE000;" glyph-name="incoming8" horiz-adv-x="512" d="M462.48374472154 -20.205965455344l-33.935522961418 -33.939743666366c-6.0619874821475 -6.0282218425603 -23.805831085245 -9.8395184109705 -24.341860613692 -9.8395184109705c-107.43382375672 -0.905341211433 -210.86536404611 41.282715100355 -286.88131534313 117.30921815975 C41.09172820144 129.54148058538 -1.1417006885437 233.38137407852 0.032710463350143 341.12647482518c0 0.064365750463185 3.8904347861929 17.312276522123 9.937649801021 23.313063782518L43.905883225789 398.40882720871 c12.454245126508 12.434196778003 36.297007380051 18.060396474228 52.998336860892 12.498562528466l7.1551500637846 -2.4058018205912c16.704495009552 -5.5639442982357 34.157109971209 -23.999983512871 38.780892242188 -40.967217405462l17.095965393517 -62.719675533307 c4.6385547382977 -16.996778827229 -1.5985919992086 -41.184583710305 -14.032788777211 -53.624056369493l-22.687344273917 -22.685233921443c22.248390959283 -82.466243634423 86.921197707465 -147.11689168163 169.33890323498 -169.40115863297l22.687344273917 22.683123568969 c12.439472659188 12.439472659188 36.688477764016 18.659736576901 53.683146238771 14.0296232485l62.71862035707 -17.123399975681c16.936633781715 -4.5942373363395 35.373728172587 -22.022583244543 40.968272581699 -38.746071426363l2.3783672384266 -7.1551500637846 C480.54730672448 16.078379809862 474.92321738073 -7.7707135011036 462.48374472154 -20.205965455344zM511.99050341387 380.12367819598L444.1099609049 448L334.05085867027 337.93773223666l-46.058442749476 46.064773806899V224.00718838812h159.99531765545 l-46.059497925713 46.059497925713L511.99050341387 380.12367819598z"/><glyph unicode="&#xE001;" glyph-name="phone-receiver3" horiz-adv-x="512" d="M409.57816103117 448L281.57840476966 320.00024373849L409.57816103117 192.00048747698V268.84245924521h102.42086401487V371.15705327781H409.57816103117V448zM435.1999512523 76.842824852948 c-31.999939065377 0 -62.719763573663 5.0990092411164 -91.413633741024 14.592136006078c-8.9598269456711 2.7522950454439 -18.965779496642 0.70391676330517 -26.090743078684 -6.2075319002272l-56.320165742174 -56.277267767679 C188.92755444604 65.834619625138 129.51483472436 124.94997838725 92.672299310868 197.63182158342l56.298716754927 56.533680660684c7.1893105437844 6.6989086989887 9.2376888259231 16.703886295994 6.4210468187366 25.663713241665 c-9.4502287904668 28.650972192866 -14.592136006078 59.327898726657 -14.592136006078 91.327837792034c0 14.143657181812 -11.520056059853 25.663713241665 -25.578892246641 25.663713241665H25.578892246641C11.520056059853 396.84319046068 0 385.32313440083 0 371.15705327781 C0 130.8377253867 194.7948274122 -64 435.1999512523 -64c14.058836186787 0 25.578892246641 11.520056059853 25.578892246641 25.578892246641v89.578770377395 C460.79931753222 65.322768793095 449.27926147237 76.842824852948 435.1999512523 76.842824852948z"/><glyph unicode="&#xE002;" glyph-name="telephone-call2" horiz-adv-x="512" d="M497.9352364673 33.940904260404l-79.48585019708 79.529033382627c-6.1895899284216 6.179513851794 -14.824787598329 9.5751516753164 -24.289102430741 9.5751516753164c-9.966679224277 0 -19.585014085141 -3.8792895016503 -26.379168611222 -10.67488346725l-42.958632982283 -42.974466816983 l-11.626352988805 6.4472496021861c-25.550051448717 14.177039815122 -60.521234544299 33.580684520965 -97.473086416976 70.58291677678c-37.097235264019 37.046854880881 -56.523911002154 72.114480424185 -70.72973960764 97.755216562551l-6.3536860335007 11.283766383464l43.040681034822 43.034923276749 c14.240375153924 14.274921702362 14.728345150607 37.003671695334 1.0795796386782 50.685544316182L103.25387552222 428.68128222573c-6.1967871260128 6.1751955332392 -14.810393203147 9.5852277519441 -24.261753079895 9.5852277519441 c-9.9738764218682 0 -19.586453524659 -3.8980022153874 -26.376289732186 -10.713748334242L33.081199008136 407.91448829612l-1.8410431438259 -2.9983525164889c-7.2562146114357 -9.3218103201066 -13.20685757983 -19.802369452394 -17.667680646848 -31.211367073946 c-4.1311914173419 -10.886481076431 -6.7077881549872 -21.224535696413 -7.882370801869 -31.588500227724c-10.243051611779 -85.207622282074 29.037813401407 -163.41525018696 135.62111252931 -269.97983660112c126.33960651571 -126.30793884631 231.90666134374 -136.13643187684 261.25107536253 -136.13643187684 c5.0121284025033 0 8.0651796206852 0.26917518991043 8.9202066945183 0.36273875859587c10.837540132811 1.3055716430415 21.210141301231 3.9167149291245 31.687821554482 7.9788132495909c11.296721339129 4.4075638048435 21.738415604424 10.320781345763 31.029997694648 17.581314275754l4.4435497927994 3.4920802712444 l18.263608607398 17.926779760131C511.12482077291 -2.4236562888325 511.59119917682 20.282062671847 497.9352364673 33.940904260404zM325.72069250536 223.66479052219c3.2329811579616 -3.241617795071 6.4918722272515 -4.9056098781537 9.681670199666 -4.9401564265914c2.4628810157045 -0.025909911328277 4.7875758376582 0.92987792878148 6.5767991588275 2.7277378870602 c0.44910512969013 0.45774176679955 0.76002406562945 0.85502707383313 1.0018499046934 1.1745826468819l100.61106456673 100.60242792962l30.39952318566 -30.385128790477c6.6127851467835 -6.6127851467835 10.967089689452 -3.6907229247612 12.533199885295 -2.1044605756634 c3.4488970856973 3.4402604485878 3.5251873801638 10.610108688929 3.4488970856973 12.230917586465l12.30001068334 130.22465377544c0.033107108919464 0.66502105742576 0.405921944143 6.6372556185935 -3.5352634567915 10.89511771354C497.1061193048 445.88546334771 494.09769071168 448 488.97184658724 448 c-14.064763532699 -0.0086366371094255 -126.42885176584 -15.78777263603 -130.63921235669 -16.418247145018c-1.3401181914792 0 -8.2623828346837 -0.15977778652437 -11.797646291475 -3.6993595618706c-2.2037819024217 -2.2124185395312 -4.7631053658482 -7.0964368249113 3.0257018673354 -14.870849662913l27.850275798861 -27.85891243597 l-99.591941387822 -99.573228674085c-2.4211372696756 -2.4369711043762 -5.2899402295231 -8.7215640410015 1.1673854492907 -15.190405235961L325.72069250536 223.66479052219z"/></font></defs></svg>
